{
    "baseTune": "a35x",
    "version": "1",
    "set_bv_th": -3.5,
    "set_bv_min": 0.5,
    "set_bv_max": 1.6,
    "set_face_count": 1,
    "set_ll_bv_min": -7.6,
    "set_ll_bv_max": -6.2
  }